        -:    0:Source:C:/Users/arnor/Documenten/CppRaytracer/CppRaytracer/Shading/DiffuseNode.hpp
        -:    0:Graph:C:\Users\arnor\Documenten\CppRaytracer\cmake-build-release-coverage\CppRaytracer\CMakeFiles\CppRaytracer.dir\CppRaytracer.cpp.gcno
        -:    0:Data:C:\Users\arnor\Documenten\CppRaytracer\cmake-build-release-coverage\CppRaytracer\CMakeFiles\CppRaytracer.dir\CppRaytracer.cpp.gcda
        -:    0:Runs:1
        -:    0:Programs:1
        -:    1://
        -:    2:// Created by arnor on 18/12/2020.
        -:    3://
        -:    4:
        -:    5:#ifndef CPPRAYTRACER_DIFFUSENODE_HPP
        -:    6:#define CPPRAYTRACER_DIFFUSENODE_HPP
        -:    7:
        -:    8:
        -:    9:#include "ShaderNode.hpp"
        -:   10:
        -:   11:class DiffuseNode : public ShaderNode {
        -:   12:private:
        -:   13:    ShaderNode* prevNode;
        -:   14:    double kdFactor;
        -:   15:public:
        5:   16:    DiffuseNode(ShaderNode* cN, double kd): prevNode{cN}, kdFactor{kd} {};
        -:   17:    Color eval(Intersection* i, Scene* s, double depth, const Entity* e) const override;
        -:   18:};
        -:   19:
        -:   20:
        -:   21:#endif //CPPRAYTRACER_DIFFUSENODE_HPP
