        -:    0:Source:C:/Users/arnor/Documenten/CppRaytracer/CppRaytracer/Toolbox/Ray.hpp
        -:    0:Graph:C:\Users\arnor\Documenten\CppRaytracer\cmake-build-release-coverage\CppRaytracer\CMakeFiles\CppRaytracer.dir\Shading\DiffuseNode.cpp.gcno
        -:    0:Data:C:\Users\arnor\Documenten\CppRaytracer\cmake-build-release-coverage\CppRaytracer\CMakeFiles\CppRaytracer.dir\Shading\DiffuseNode.cpp.gcda
        -:    0:Runs:1
        -:    0:Programs:1
        -:    1:#pragma once
        -:    2:#include "Point.hpp"
        -:    3:#include "Vector.hpp"
        -:    4:
        -:    5:/**
        -:    6: * Represents an ray in three dimensional space starting at a given point and
        -:    7: * extending infinitely in a given direction.
        -:    8: * 
        -:    9: **/
        -:   10:
        -:   11:class Point;
        -:   12:class Ray
        -:   13:{
        -:   14:private:
        -:   15:    Point origin;
        -:   16:    Vector direction;
        -:   17:public:
        -:   18:    Ray(const Point o, const Vector d) : origin(o), direction(d) {};
   948386:   19:    Ray(const Ray &r) : origin(r.get_origin()), direction(r.get_direction()) {};
   948386:   19-block  0
        -:   20:    Point get_origin() const { return Point(origin); }
        -:   21:    Vector get_direction() const { return Vector(direction); }
        -:   22:};
