        -:    0:Source:C:/Users/arnor/Documenten/CppRaytracer/CppRaytracer/Toolbox/Intersection.hpp
        -:    0:Graph:C:\Users\arnor\Documenten\CppRaytracer\cmake-build-release-coverage\CppRaytracer\CMakeFiles\CppRaytracer.dir\Scene\Entity.cpp.gcno
        -:    0:Data:C:\Users\arnor\Documenten\CppRaytracer\cmake-build-release-coverage\CppRaytracer\CMakeFiles\CppRaytracer.dir\Scene\Entity.cpp.gcda
        -:    0:Runs:1
        -:    0:Programs:1
        -:    1:/**
        -:    2: * Class, which encapsulates all data of a certain ray intersection
        -:    3:**/
        -:    4:#pragma once
        -:    5:#include "../Toolbox/Ray.hpp"
        -:    6:
        -:    7:class Entity;
        -:    8:
        -:    9:class Intersection
        -:   10:{
        -:   11:private:
        -:   12:    Point intersection;
        -:   13:    Vector normal;
        -:   14:    double cosAngle;
        -:   15:    Ray ray;
        -:   16:    Entity* entity;
        -:   17:    static double calculateCosAngle(const Ray ray, const Vector normal) {
        -:   18:        return (ray.get_direction() * -1).dot(normal) / (normal.length() * ray.get_direction().length());
        -:   19:    };
        -:   20:public:
        -:   21:    Intersection(double t, Vector n, Ray r) : intersection(r.get_origin() + (r.get_direction().normalize() * t)),
        -:   22:                                                        normal(n), ray(r), cosAngle(calculateCosAngle(r, n)) {};
        -:   23:    Point get_intersection() const { return Point(intersection); };
        -:   24:    Vector get_normal() const { return Vector(normal); };
        -:   25:    double get_cosAngle() const { return cosAngle; };
        -:   26:    Ray get_ray() const { return Ray(ray); };
        -:   27:    double getT() {return (intersection - ray.get_origin()).length();};
        -:   28:    Entity* get_entity(){
        -:   29:        return entity;
        -:   30:    }
  967628*:   31:    void set_entity(Entity* e) {entity = e;};
   967628:   31-block  0
        -:   32:};
        -:   33:    
