        -:    0:Source:C:/Users/arnor/Documenten/CppRaytracer/CppRaytracer/Toolbox/Matrix.cpp
        -:    0:Graph:C:\Users\arnor\Documenten\CppRaytracer\cmake-build-release-coverage\CppRaytracer\CMakeFiles\CppRaytracer.dir\Toolbox\Matrix.cpp.gcno
        -:    0:Data:C:\Users\arnor\Documenten\CppRaytracer\cmake-build-release-coverage\CppRaytracer\CMakeFiles\CppRaytracer.dir\Toolbox\Matrix.cpp.gcda
        -:    0:Runs:1
        -:    0:Programs:1
        -:    1:#include "Matrix.hpp"
        -:    2:
    #####:    3:Matrix Matrix::operator+(const Matrix& other){
    %%%%%:    3-block  0
        -:    4:    double result[4][4];
    #####:    5:    for(int i = 0; i<4; i++){
    %%%%%:    5-block  0
    %%%%%:    5-block  1
    #####:    6:        for(int j = 0; j<4; j++){
    %%%%%:    6-block  0
    #####:    7:            result[i][j] = elements[i][j] + other.get(i,j);
    %%%%%:    7-block  0
    %%%%%:    7-block  1
        -:    8:        }
        -:    9:    }
    #####:   10:    return Matrix(result);
        -:   11:}
    #####:   12:Matrix Matrix::operator-(const Matrix& other){
    %%%%%:   12-block  0
        -:   13:    double result[4][4];
    #####:   14:    for(int i = 0; i<4; i++){
    %%%%%:   14-block  0
    %%%%%:   14-block  1
    #####:   15:        for(int j = 0; j<4; j++){
    %%%%%:   15-block  0
    #####:   16:            result[i][j] = elements[i][j] - other.get(i,j);
    %%%%%:   16-block  0
    %%%%%:   16-block  1
        -:   17:        }
        -:   18:    }
    #####:   19:    return Matrix(result);
        -:   20:}
    #####:   21:Matrix Matrix::operator*(const double s){
    %%%%%:   21-block  0
        -:   22:    double result[4][4];
    #####:   23:    for(int i = 0; i<4; i++){
    %%%%%:   23-block  0
    %%%%%:   23-block  1
    #####:   24:        for(int j = 0; j<4; j++){
    %%%%%:   24-block  0
    #####:   25:            result[i][j] = elements[i][j] * s;
    %%%%%:   25-block  0
        -:   26:        }
        -:   27:    }
    #####:   28:    return Matrix(result);
        -:   29:}
        2:   30:Matrix Matrix::operator*(const Matrix& other){
        2:   30-block  0
        -:   31:    double result[4][4];
       10:   32:    for(int i = 0; i<4; i++){
       10:   32-block  0
        8:   32-block  1
       40:   33:        for(int j = 0; j<4; j++){
       40:   33-block  0
        -:   34:            double value = 0;
      160:   35:            for(int k = 0; k<4; k++) value += elements[i][k] * other.get(k,j);
      160:   35-block  0
      128:   35-block  1
      128:   35-block  2
       32:   36:            result[i][j] = value;
       32:   36-block  0
        -:   37:        }
        -:   38:    }
        2:   39:    return Matrix(result);
        -:   40:}
    #####:   41:bool Matrix::operator==(const Matrix& other){
    #####:   42:    if(&other == this) return true;
    %%%%%:   42-block  0
    #####:   43:    for(int i = 0; i<4; i++){
    %%%%%:   43-block  0
    %%%%%:   43-block  1
    #####:   44:        for(int j = 0; j<4; j++){
    %%%%%:   44-block  0
    %%%%%:   44-block  1
    #####:   45:            if(elements[i][j] != other.get(i,j)) return false;
    %%%%%:   45-block  0
    %%%%%:   45-block  1
        -:   46:        }
        -:   47:    }
        -:   48:    return true;
        -:   49:}
   968663:   50:Matrix Matrix::transpose() const{
   968663:   50-block  0
        -:   51:    double result[4][4];
  4843383:   52:    for(int i = 0; i<4; i++){
  4843383:   52-block  0
  3874720:   52-block  1
 19374896:   53:        for(int j = 0; j<4; j++){
 19374896:   53-block  0
 15500176:   54:            result[i][j] = elements[j][i];
 15500176:   54-block  0
        -:   55:        }
        -:   56:    }
   968663:   57:    return Matrix(result);
        -:   58:}
 46780367:   59:Point Matrix::transform(Point p) const{
 46780367:   60:    double x = elements[0][0] * p.x() + elements[0][1] * p.y() + elements[0][2] * p.z() + elements[0][3];
 46780367:   61:    double y = elements[1][0] * p.x() + elements[1][1] * p.y() + elements[1][2] * p.z() + elements[1][3];
 46780367:   62:    double z = elements[2][0] * p.x() + elements[2][1] * p.y() + elements[2][2] * p.z() + elements[2][3];
 46780367:   63:    double w = elements[3][0] * p.x() + elements[3][1] * p.y() + elements[3][2] * p.z() + elements[3][3];
        -:   64:    //double invW = 1/w;
 93560734:   65:    return Point(x / w, y / w, z / w); // Point(x * invW, y * invW, z * invW);
        -:   66:}
 44131183:   67:Vector Matrix::transform(Vector v) const{
 44131183:   68:    double x = elements[0][0] * v.x() + elements[0][1] * v.y() + elements[0][2] * v.z();
 44131183:   69:    double y = elements[1][0] * v.x() + elements[1][1] * v.y() + elements[1][2] * v.z();
 44131183:   70:    double z = elements[2][0] * v.x() + elements[2][1] * v.y() + elements[2][2] * v.z();
 44131183:   71:    return Vector(x, y, z);
        -:   72:}
