        -:    0:Source:C:/Users/arnor/Documenten/CppRaytracer/CppRaytracer/Shape/Shape.hpp
        -:    0:Graph:C:\Users\arnor\Documenten\CppRaytracer\cmake-build-release-coverage\CppRaytracer\CMakeFiles\CppRaytracer.dir\Shape\PointShape.cpp.gcno
        -:    0:Data:C:\Users\arnor\Documenten\CppRaytracer\cmake-build-release-coverage\CppRaytracer\CMakeFiles\CppRaytracer.dir\Shape\PointShape.cpp.gcda
        -:    0:Runs:1
        -:    0:Programs:1
        -:    1:#ifndef CPPRAYTRACER_SHAPE_H
        -:    2:#define CPPRAYTRACER_SHAPE_H
        -:    3:#include "../Toolbox/Point.hpp"
        -:    4:#include "../Toolbox/Transformation.hpp"
        -:    5:
        -:    6:class Intersection;
        -:    7:
        -:    8:class Shape {
        -:    9:protected:
        -:   10:    Transformation transformation;
        -:   11:public:
        -:   12:    Shape(Transformation t): transformation{t} {};
        -:   13:    virtual ~Shape() = default;
    #####:   14:    virtual Point getPosition() const {return transformation.transform(Point(0,0,0));};
    %%%%%:   14-block  0
    %%%%%:   14-block  1
        -:   15:    virtual bool intersect(Ray* r, double tMin, Intersection*& intersection) = 0;
        -:   16:};
        -:   17:
        -:   18:#endif //CPPRAYTRACER_SHAPE_H
